Module 9 Data Visualization II | ESOC 2014 Introduction to Data Science
…
9.1 Data Viz by Artist

QUESTION: Which artist (from just a few) is most popular? Does that change across different decades?

9.1.1 Explore Artist Info

Let’s check who the artists are in this data set. Check what the unique values are for the track_artist variable using select() and unique().

## # A tibble: 10,693 x 1
##    track_artist    
##    <chr>           
##  1 Ed Sheeran      
##  2 Maroon 5        
##  3 Zara Larsson    
##  4 The Chainsmokers
##  5 Lewis Capaldi   
##  6 Katy Perry      
##  7 Sam Feldt       
##  8 Avicii          
##  9 Shawn Mendes    
## 10 Ellie Goulding  
## # … with 10,683 more rows

Who’s the artist with the most songs? Use count() and arrange() to find out.

## # A tibble: 10,693 x 2
##    track_artist                  n
##    <chr>                     <int>
##  1 Martin Garrix               161
##  2 Queen                       136
##  3 The Chainsmokers            123
##  4 David Guetta                110
##  5 Don Omar                    102
##  6 Drake                       100
##  7 Dimitri Vegas & Like Mike    93
##  8 Calvin Harris                91
##  9 Hardwell                     84
## 10 Kygo                         83
## # … with 10,683 more rows

What genre are these artists classified as?

## # A tibble: 13,175 x 3
##    track_artist              playlist_genre     n
##    <chr>                     <chr>          <int>
##  1 Queen                     rock             134
##  2 Martin Garrix             edm              125
##  3 Don Omar                  latin            100
##  4 Dimitri Vegas & Like Mike edm               79
##  5 Guns N' Roses             rock              76
##  6 Hardwell                  edm               76
##  7 Logic                     rap               65
##  8 Daddy Yankee              latin             61
##  9 David Guetta              edm               60
## 10 Wisin & Yandel            latin             60
## # … with 13,165 more rows
…
What albums are there in this new data frame?

spotify_drake %>%
  count(track_album_name) %>%
  arrange(-n)

## # A tibble: 27 x 2
##    track_album_name                                          n
##    <chr>                                                 <int>
##  1 Views                                                    23
##  2 Scorpion                                                 16
##  3 More Life                                                 9
##  4 The Best In The World Pack                                7
##  5 Take Care (Deluxe)                                        5
##  6 What A Time To Be Alive                                   5
##  7 If You're Reading This It's Too Late                      4
##  8 Care Package                                              3
##  9 Hotline Bling                                             3
## 10 Top Boy (A Selection of Music Inspired by the Series)     3
## # … with 17 more rows

9.2.2 Summarize data

Now we summarize our data for mean popularity per album.

spotify_drake %>%
  group_by(track_album_name) %>%
  summarise(mean_popularity = mean(track_popularity))

## `summarise()` ungrouping output (override with `.groups` argument)

## # A tibble: 27 x 2
##    track_album_name                     mean_popularity
##    <chr>                                          <dbl>
##  1 0 To 100 / The Catch Up                         5   
##  2 Back To Back                                   69   
##  3 Behind Barz (Bonus)                            74   
##  4 Care Package                                   61.3 
##  5 Fake Love                                       6   
##  6 Forever                                         2   
##  7 Hold On, We're Going Home                       1   
##  8 Hotline Bling                                   9.67
##  9 If You're Reading This It's Too Late           18   
## 10 More Life                                      47.9 
## # … with 17 more rows
…
