Module 13 Data Case Study 3 | ESOC 2014 Introduction to Data Science
…
We just need the abbr and pop_2015 columns, but we have to make sure that the state abbreviation column name matches what we have for our beer_awards data.

us_pop <- statepop %>%
  select("state" = abbr,
         pop_2015)

We are interested in number of beer awards per state, to check whether it correlates with the population size. We need to summarise our beer_awards data to get number of awards per state.

beer_awards %>%
  count(state)

## # A tibble: 52 x 2
##    state     n
##    <chr> <int>
##  1 Ak        1
##  2 AK       62
##  3 AL        6
##  4 AR        5
##  5 AZ       92
##  6 CA      962
##  7 CO      659
##  8 CT       16
##  9 DC        4
## 10 DE       43
## # … with 42 more rows
…
