Module 7 Data Wrangling | ESOC 2014 Introduction to Data Science
…
We can add year to our group_by to check how many observations per position across year

nfl_salary_tidy %>%
  count(position, year)

## # A tibble: 80 x 3
##    position           year     n
##    <chr>             <dbl> <int>
##  1 Cornerback         2011   100
##  2 Cornerback         2012   100
##  3 Cornerback         2013   100
##  4 Cornerback         2014   100
##  5 Cornerback         2015   100
##  6 Cornerback         2016   100
##  7 Cornerback         2017   100
##  8 Cornerback         2018   100
##  9 Defensive Lineman  2011   100
## 10 Defensive Lineman  2012   100
## # … with 70 more rows
…
## Rows: 7,944
## Columns: 3
## $ year     <dbl> 2011, 2011, 2011, 2011, 2011, 2011, 2011, 2011, 2011, 2011, …
## $ position <chr> "Cornerback", "Defensive Lineman", "Linebacker", "Offensive …
## $ salary   <dbl> 11265916, 17818000, 16420000, 15960000, 17228125, 12955000, …

Now we can do our salary summarise() in a cleaner way. We are going to do a mean() of our numeric variable salary by year AND position.

nfl_salary_tidy_clean %>%
  group_by(year, position) %>%
  summarise(mean_salary = mean(salary))

## `summarise()` regrouping output by 'year' (override with `.groups` argument)

## # A tibble: 80 x 3
## # Groups:   year [8]
##     year position          mean_salary
##    <dbl> <chr>                   <dbl>
##  1  2011 Cornerback           3037766.
##  2  2011 Defensive Lineman    4306995.
##  3  2011 Linebacker           4016045.
##  4  2011 Offensive Lineman    4662748.
##  5  2011 Quarterback          3376113.
##  6  2011 Running Back         1976341.
##  7  2011 Safety               2241891.
##  8  2011 Special Teamer       1244069.
##  9  2011 Tight End            1608100.
## 10  2011 Wide Receiver        2996590.
## # … with 70 more rows

We can do the group_by both ways (first year and then position or vice-versa).

nfl_salary_tidy_clean %>%
  group_by(position, year) %>%
  summarise(mean_salary = mean(salary)) %>%
  arrange(mean_salary)

## `summarise()` regrouping output by 'position' (override with `.groups` argument)

## # A tibble: 80 x 3
## # Groups:   position [10]
##    position        year mean_salary
##    <chr>          <dbl>       <dbl>
##  1 Special Teamer  2013    1235892.
##  2 Special Teamer  2011    1244069.
##  3 Special Teamer  2014    1264493.
##  4 Special Teamer  2012    1313043.
##  5 Special Teamer  2015    1348637.
##  6 Special Teamer  2016    1394443.
##  7 Special Teamer  2017    1459552.
##  8 Special Teamer  2018    1571447.
##  9 Tight End       2011    1608100.
## 10 Tight End       2012    1664520.
## # … with 70 more rows

Add a - (minus) sign to the argument in arrange() to arrange your results by decreasing order of mean_salary.

nfl_salary_tidy_clean %>%
  group_by(position, year) %>%
  summarise(mean_salary = mean(salary)) %>%
  arrange(-mean_salary)

## `summarise()` regrouping output by 'position' (override with `.groups` argument)

## # A tibble: 80 x 3
## # Groups:   position [10]
##    position           year mean_salary
##    <chr>             <dbl>       <dbl>
##  1 Offensive Lineman  2018    7522647.
##  2 Defensive Lineman  2018    7202360.
##  3 Quarterback        2018    6593769.
##  4 Offensive Lineman  2017    6370947.
##  5 Defensive Lineman  2017    6202601.
##  6 Wide Receiver      2018    5627721.
##  7 Quarterback        2016    5499939.
##  8 Offensive Lineman  2016    5410392.
##  9 Quarterback        2017    5329727.
## 10 Linebacker         2018    5293675.
## # … with 70 more rows

We can also add arrange() to our code block.

nfl_salary_tidy_clean %>%
  group_by(position, year) %>%
  summarise(mean_salary = mean(salary)) %>%
  arrange()

## `summarise()` regrouping output by 'position' (override with `.groups` argument)

## # A tibble: 80 x 3
## # Groups:   position [10]
##    position           year mean_salary
##    <chr>             <dbl>       <dbl>
##  1 Cornerback         2011    3037766.
##  2 Cornerback         2012    3132916.
##  3 Cornerback         2013    2901798.
##  4 Cornerback         2014    3038278.
##  5 Cornerback         2015    3758543.
##  6 Cornerback         2016    4201470.
##  7 Cornerback         2017    4125692.
##  8 Cornerback         2018    4659704.
##  9 Defensive Lineman  2011    4306995.
## 10 Defensive Lineman  2012    4693730.
## # … with 70 more rows
…
Now that our data is tidy, we can transform our data by adding new variables/columns to it.

It seems some salaries for certain positions show a higher increase across the years than the salaries for other positions. In other words, the proportion of what position makes in relation to total money spent in salaries for each each.

We can check this is true by creating a sum() of salaries for each year and a count of players using n():

nfl_salary_tidy_clean %>%
  group_by(year, position) %>%
  summarise(player_count = n(),
            total_per_position = sum(salary)) 

## `summarise()` regrouping output by 'year' (override with `.groups` argument)

## # A tibble: 80 x 4
## # Groups:   year [8]
##     year position          player_count total_per_position
##    <dbl> <chr>                    <int>              <dbl>
##  1  2011 Cornerback                 100          303776605
##  2  2011 Defensive Lineman          100          430699528
##  3  2011 Linebacker                 100          401604548
##  4  2011 Offensive Lineman          100          466274753
##  5  2011 Quarterback                 97          327482939
##  6  2011 Running Back               100          197634074
##  7  2011 Safety                     100          224189136
##  8  2011 Special Teamer              99          123162874
##  9  2011 Tight End                  100          160810030
## 10  2011 Wide Receiver              100          299659044
## # … with 70 more rows

We can then add mutate() to our code block to calculate sum() of all salaries per year.

nfl_salary_tidy_clean %>%
  group_by(year, position) %>%
  summarise(player_count = n(),
            total_per_position = sum(salary)) %>%
  mutate(total_per_year = sum(total_per_position)) 

## `summarise()` regrouping output by 'year' (override with `.groups` argument)

## # A tibble: 80 x 5
## # Groups:   year [8]
##     year position          player_count total_per_position total_per_year
##    <dbl> <chr>                    <int>              <dbl>          <dbl>
##  1  2011 Cornerback                 100          303776605     2935293531
##  2  2011 Defensive Lineman          100          430699528     2935293531
##  3  2011 Linebacker                 100          401604548     2935293531
##  4  2011 Offensive Lineman          100          466274753     2935293531
##  5  2011 Quarterback                 97          327482939     2935293531
##  6  2011 Running Back               100          197634074     2935293531
##  7  2011 Safety                     100          224189136     2935293531
##  8  2011 Special Teamer              99          123162874     2935293531
##  9  2011 Tight End                  100          160810030     2935293531
## 10  2011 Wide Receiver              100          299659044     2935293531
## # … with 70 more rows

Now we can calculate the percentage cost of each position by the total salaries for each year, we can do that all in the same mutate().

nfl_salary_tidy_clean %>%
  group_by(year, position) %>%
  summarise(player_count = n(),
            total_per_position = sum(salary)) %>%
  mutate(total_per_year = sum(total_per_position),
         percentage_cost = total_per_position/total_per_year) 

## `summarise()` regrouping output by 'year' (override with `.groups` argument)

## # A tibble: 80 x 6
## # Groups:   year [8]
##     year position   player_count total_per_posit… total_per_year percentage_cost
##    <dbl> <chr>             <int>            <dbl>          <dbl>           <dbl>
##  1  2011 Cornerback          100        303776605     2935293531          0.103 
##  2  2011 Defensive…          100        430699528     2935293531          0.147 
##  3  2011 Linebacker          100        401604548     2935293531          0.137 
##  4  2011 Offensive…          100        466274753     2935293531          0.159 
##  5  2011 Quarterba…           97        327482939     2935293531          0.112 
##  6  2011 Running B…          100        197634074     2935293531          0.0673
##  7  2011 Safety              100        224189136     2935293531          0.0764
##  8  2011 Special T…           99        123162874     2935293531          0.0420
##  9  2011 Tight End           100        160810030     2935293531          0.0548
## 10  2011 Wide Rece…          100        299659044     2935293531          0.102 
## # … with 70 more rows

Add arrange() to see higher percentages at the top.

nfl_salary_tidy_clean %>%
  group_by(year, position) %>%
  summarise(player_count = n(),
            total_per_position = sum(salary)) %>%
  mutate(total_per_year = sum(total_per_position),
         percentage_cost = total_per_position/total_per_year) %>%
  arrange(-percentage_cost)

## `summarise()` regrouping output by 'year' (override with `.groups` argument)

## # A tibble: 80 x 6
## # Groups:   year [8]
##     year position   player_count total_per_posit… total_per_year percentage_cost
##    <dbl> <chr>             <int>            <dbl>          <dbl>           <dbl>
##  1  2018 Offensive…          100        752264724     4557047519           0.165
##  2  2014 Defensive…          100        503535499     3154183189           0.160
##  3  2011 Offensive…          100        466274753     2935293531           0.159
##  4  2017 Offensive…          100        637094749     4027571325           0.158
##  5  2018 Defensive…          100        720236012     4557047519           0.158
##  6  2013 Defensive…          100        454787761     2920039442           0.156
##  7  2014 Offensive…          100        489885308     3154183189           0.155
##  8  2013 Offensive…          100        453489965     2920039442           0.155
##  9  2012 Defensive…          100        469373045     3032589536           0.155
## 10  2017 Defensive…          100        620260110     4027571325           0.154
## # … with 70 more rows
…
