Module 8 Data Visualization | ESOC 2014 Introduction to Data Science
…
The plot above is too messy, there’s too much information. You often need to transform your data before plotting it.

EXERCISE

Summarize mean track_popularity by release_year, playlist_genre and playlist_subgenre.

Your summarized data frame should look something like this:

## `summarise()` regrouping output by 'release_year', 'playlist_genre' (override with `.groups` argument)

## # A tibble: 883 x 4
## # Groups:   release_year, playlist_genre [302]
##    release_year playlist_genre playlist_subgenre  mean_popularity
##           <dbl> <chr>          <chr>                        <dbl>
##  1         1957 r&b            urban contemporary              59
##  2         1957 rock           classic rock                     1
##  3         1958 rock           classic rock                    73
##  4         1960 r&b            neo soul                        13
##  5         1960 r&b            urban contemporary              19
##  6         1961 r&b            urban contemporary              47
##  7         1962 r&b            urban contemporary              64
##  8         1962 rock           classic rock                    64
##  9         1963 r&b            neo soul                        73
## 10         1963 rock           album rock                      59
## # … with 873 more rows
…
