Module 10 Data Case Study 1 | ESOC 2014 Introduction to Data Science
…
10.1 Data Questions

Has athlete height and weight changed over time overall?

Has height and weight changed over time for the top 5 countries with the most medals?

10.2 Data Exploration

Suggestions of data exploration:

What type of olympics? What years? How many athletes per game?

## # A tibble: 51 x 2
##    Games           n
##    <chr>       <int>
##  1 1896 Summer   380
##  2 1900 Summer  1936
##  3 1904 Summer  1301
##  4 1906 Summer  1733
##  5 1908 Summer  3101
##  6 1912 Summer  4040
##  7 1920 Summer  4292
##  8 1924 Summer  5233
##  9 1924 Winter   460
## 10 1928 Summer  4992
## # … with 41 more rows
…
What are the top countries for medal count?

## # A tibble: 783 x 3
##    Team          Medal      n
##    <chr>         <chr>  <int>
##  1 United States Gold    2474
##  2 United States Silver  1512
##  3 United States Bronze  1233
##  4 Soviet Union  Gold    1058
##  5 Soviet Union  Silver   716
##  6 Germany       Gold     679
##  7 Germany       Bronze   678
##  8 Soviet Union  Bronze   677
##  9 Germany       Silver   627
## 10 Great Britain Silver   582
## # … with 773 more rows

10.3 Calculate height and weight relationship

It’s difficult to plot three numeric variables (in this case we want to plot weight, height, across different years) with so many data points. So I’ll create a new variable in my data frame with is the relationship between height and weight (i.e., kg per cm).

## # A tibble: 271,116 x 3
##    Weight Height kg_per_cm
##     <dbl>  <dbl>     <dbl>
##  1     80    180     0.444
##  2     60    170     0.353
##  3     NA     NA    NA    
##  4     NA     NA    NA    
##  5     82    185     0.443
##  6     82    185     0.443
##  7     82    185     0.443
##  8     82    185     0.443
##  9     82    185     0.443
## 10     82    185     0.443
## # … with 271,106 more rows
…
10.9 Solving the problem of team name changes over time

We can use name of Olympic committee (NOC) to standardized Team to country

olympic_events %>%
  count(NOC, Team)

## # A tibble: 1,231 x 3
##    NOC   Team                     n
##    <chr> <chr>                <int>
##  1 AFG   Afghanistan            126
##  2 AHO   Netherlands Antilles    79
##  3 ALB   Albania                 70
##  4 ALG   Algeria                551
##  5 AND   Andorra                169
##  6 ANG   Angola                 267
##  7 ANT   Antigua and Barbuda    133
##  8 ANZ   Australasia             77
##  9 ANZ   Sydney Rowing Club       9
## 10 ARG   Acturus                  2
## # … with 1,221 more rows
…
We can add region to our olympic_events data frame by joining the olympic_events data frame with the olympic_noc_regions data frame by the NOC column. For that we will use the left_join() function.

olympic_events <- left_join(olympic_events,
                       olympic_noc_regions)

## Joining, by = "NOC"

olympic_events %>%
  count(NOC, region)

## # A tibble: 230 x 3
##    NOC   region          n
##    <chr> <chr>       <int>
##  1 AFG   Afghanistan   126
##  2 AHO   Curacao        79
##  3 ALB   Albania        70
##  4 ALG   Algeria       551
##  5 AND   Andorra       169
##  6 ANG   Angola        267
##  7 ANT   Antigua       133
##  8 ANZ   Australia      86
##  9 ARG   Argentina    3297
## 10 ARM   Armenia       221
## # … with 220 more rows
…
