Module 11 Data Case Study 2 | ESOC 2014 Introduction to Data Science
…
# extract week from dt variable in global_temperatures
week(global_temperatures$dt)[c(1:10)]

##  [1] 44 48  1  5  9 14 18 22 27 31

We can create new columns in our data frame with year, month, and week extracted from dt in our data frame by using mutate.

global_temperatures %>%
  mutate(year = year(dt),
         month = month(dt),
         decade = year - (year %% 10))

## # A tibble: 577,462 x 7
##    dt         average_temperat… average_temperature_… country  year month decade
##    <date>                 <dbl>                 <dbl> <chr>   <dbl> <dbl>  <dbl>
##  1 1743-11-01              4.38                  2.29 Åland    1743    11   1740
##  2 1743-12-01             NA                    NA    Åland    1743    12   1740
##  3 1744-01-01             NA                    NA    Åland    1744     1   1740
##  4 1744-02-01             NA                    NA    Åland    1744     2   1740
##  5 1744-03-01             NA                    NA    Åland    1744     3   1740
##  6 1744-04-01              1.53                  4.68 Åland    1744     4   1740
##  7 1744-05-01              6.70                  1.79 Åland    1744     5   1740
##  8 1744-06-01             11.6                   1.58 Åland    1744     6   1740
##  9 1744-07-01             15.3                   1.41 Åland    1744     7   1740
## 10 1744-08-01             NA                    NA    Åland    1744     8   1740
## # … with 577,452 more rows
…
11.4 Extra Data libraries

If you need some hierarchical information that is not present in your data frame, such as continent based on country, check if there is a package that will do that for you. In our case, we will use the countrycode package.

# make sure you install this library
library(countrycode)

Let’s look at our country variable.

# what does country look like in our data?
global_temperatures %>%
  count(country)

## # A tibble: 243 x 2
##    country            n
##    <chr>          <int>
##  1 Afghanistan     2106
##  2 Africa          1965
##  3 Åland           3239
##  4 Albania         3239
##  5 Algeria         2721
##  6 American Samoa  1761
##  7 Andorra         3239
##  8 Angola          1878
##  9 Anguilla        2277
## 10 Antarctica       764
## # … with 233 more rows
…
# keep only continents that are not NA
global_temp_continents <- global_temperatures %>%
  filter(!is.na(continent))

11.5 Exploring Data

Now that our data is clean and transformed, what’s our data question? The data frame is still very large, so some summarization would be helpful.

global_temp_continents  %>%
  group_by(decade, continent) %>%
  summarise(mean_temp = mean(average_temperature, na.rm = TRUE))

## `summarise()` regrouping output by 'decade' (override with `.groups` argument)

## # A tibble: 128 x 3
## # Groups:   decade [28]
##    decade continent mean_temp
##    <chr>  <chr>         <dbl>
##  1 1740   Americas       2.62
##  2 1740   Europe         6.98
##  3 1750   Africa        19.8 
##  4 1750   Americas       7.30
##  5 1750   Europe         8.53
##  6 1760   Africa        19.8 
##  7 1760   Americas       6.44
##  8 1760   Europe         8.31
##  9 1770   Africa        20.1 
## 10 1770   Americas       6.61
## # … with 118 more rows
…
