Module 6 Intro to Tidyverse | ESOC 2014 Introduction to Data Science
…
The pipe allows us to apply multiple functions to the same object.

Let’s start by selecting one column in our data.

groundhog_predictions %>% 
  select(Punxsutawney_Phil)

## # A tibble: 122 x 1
##    Punxsutawney_Phil
##    <chr>            
##  1 No Record        
##  2 No Record        
##  3 No Record        
##  4 Full Shadow      
##  5 No Record        
##  6 Full Shadow      
##  7 Full Shadow      
##  8 No Record        
##  9 Full Shadow      
## 10 Full Shadow      
## # … with 112 more rows
…
Again we can list all the columns we want to pivot (i.e., all the columns that are numeric), but we have a smaller number of columns we don’t want to pivot, so we use the - (minus) symbol with the columns we don’t want to pivot.

selected_predictions %>% 
  pivot_longer(cols = c(-Year, -Punxsutawney_Phil))

## # A tibble: 732 x 4
##     Year Punxsutawney_Phil name                                      value
##    <dbl> <chr>             <chr>                                     <dbl>
##  1  1895 No Record         February_Average_Temperature_Northeast     15.6
##  2  1895 No Record         February_Average_Temperature_Midwest       21.9
##  3  1895 No Record         February_Average_Temperature_Pennsylvania  17  
##  4  1895 No Record         March_Average_Temperature_Northeast        27.6
##  5  1895 No Record         March_Average_Temperature_Midwest          40.2
##  6  1895 No Record         March_Average_Temperature_Pennsylvania     31.3
##  7  1896 No Record         February_Average_Temperature_Northeast     22.2
##  8  1896 No Record         February_Average_Temperature_Midwest       33.5
##  9  1896 No Record         February_Average_Temperature_Pennsylvania  26.6
## 10  1896 No Record         March_Average_Temperature_Northeast        25.3
## # … with 722 more rows

We can specify the column names so they are not just name and value:

selected_predictions %>% 
  pivot_longer(cols = c(-Year, -Punxsutawney_Phil),
               names_to = "month_region",
               values_to = "temperature")

## # A tibble: 732 x 4
##     Year Punxsutawney_Phil month_region                              temperature
##    <dbl> <chr>             <chr>                                           <dbl>
##  1  1895 No Record         February_Average_Temperature_Northeast           15.6
##  2  1895 No Record         February_Average_Temperature_Midwest             21.9
##  3  1895 No Record         February_Average_Temperature_Pennsylvania        17  
##  4  1895 No Record         March_Average_Temperature_Northeast              27.6
##  5  1895 No Record         March_Average_Temperature_Midwest                40.2
##  6  1895 No Record         March_Average_Temperature_Pennsylvania           31.3
##  7  1896 No Record         February_Average_Temperature_Northeast           22.2
##  8  1896 No Record         February_Average_Temperature_Midwest             33.5
##  9  1896 No Record         February_Average_Temperature_Pennsylvania        26.6
## 10  1896 No Record         March_Average_Temperature_Northeast              25.3
## # … with 722 more rows
…
6.13 Separating one categorical column into two

When we look at our predictions_tidy, we see that the month_region is actually holding two categorical variables. We can separate this column into its two variables with the separate() function. There are four parts to each of the values, the two middle parts are not useful so we name the first part month the last region and the other two not useful parts (the middle two) trash1 and trash2.

predictions_tidy_v2 <- predictions_tidy %>% 
  separate(col = month_region,
           into = c("month", "trash1", "trash2", "region")) 

predictions_tidy_v2

## # A tibble: 732 x 7
##     Year Punxsutawney_Phil month    trash1  trash2      region       temperature
##    <dbl> <chr>             <chr>    <chr>   <chr>       <chr>              <dbl>
##  1  1895 No Record         February Average Temperature Northeast           15.6
##  2  1895 No Record         February Average Temperature Midwest             21.9
##  3  1895 No Record         February Average Temperature Pennsylvania        17  
##  4  1895 No Record         March    Average Temperature Northeast           27.6
##  5  1895 No Record         March    Average Temperature Midwest             40.2
##  6  1895 No Record         March    Average Temperature Pennsylvania        31.3
##  7  1896 No Record         February Average Temperature Northeast           22.2
##  8  1896 No Record         February Average Temperature Midwest             33.5
##  9  1896 No Record         February Average Temperature Pennsylvania        26.6
## 10  1896 No Record         March    Average Temperature Northeast           25.3
## # … with 722 more rows
…
