Module 5 Intro to Tidyverse | ESOC 2014 Introduction to Data Science
…
The pipe allows us to apply multiple functions to the same object.

Let’s start by selecting one column in our data.

groundhog_predictions %>% 
  select(Punxsutawney_Phil)

## # A tibble: 122 x 1
##    Punxsutawney_Phil
##    <chr>            
##  1 No Record        
##  2 No Record        
##  3 No Record        
##  4 Full Shadow      
##  5 No Record        
##  6 Full Shadow      
##  7 Full Shadow      
##  8 No Record        
##  9 Full Shadow      
## 10 Full Shadow      
## # … with 112 more rows
…
